/Users/joshualee/School/web/assignment4/ex03_1/src/main/java/com/restfully/shop/services/CustomerResource.java
/Users/joshualee/School/web/assignment4/ex03_1/src/main/java/com/restfully/shop/services/ShoppingApplication.java
/Users/joshualee/School/web/assignment4/ex03_1/src/main/java/com/restfully/shop/domain/Customer.java
